<?xml version="1.0" encoding="UTF-8"?>
<kml xmlns="http://earth.google.com/kml/2.0">
   <Document>
      <Style id="z1">
         <IconStyle>
            <Icon>
               <href>http://www.google.com/intl/en_us/mapfiles/ms/micons/blue-dot.png</href>
            </Icon>
         </IconStyle>
      </Style>
      <Style id="poly1">

         <PolyStyle>
            <color>#d00b00ff</color>
         </PolyStyle>
      </Style>
      <Style id="poly2">
         <PolyStyle>
            <color>#d000FF00</color>
         </PolyStyle>
      </Style>
      <Placemark>
         <name>Jeff/Fig</name>
         <styleUrl>#z1</styleUrl>
         <Point>
            <coordinates>-118.280198,34.021877</coordinates>
         </Point>
      </Placemark>
      <Placemark>
         <name>Fig/Expo</name>
         <styleUrl>#z1</styleUrl>
         <Point>
            <coordinates>-118.282371,34.018430</coordinates>
         </Point>
      </Placemark>
      <Placemark>
         <name>Ver/Expo</name>
         <styleUrl>#z1</styleUrl>
         <Point>
            <coordinates>-118.291440,34.018412</coordinates>
         </Point>
      </Placemark>
      <Placemark>
         <name>Jeff/Ver</name>
         <styleUrl>#z1</styleUrl>
         <Point>
            <coordinates>-118.291386,34.025375</coordinates>
         </Point>
      </Placemark>
      <Placemark>
         <name>Leavey Lib</name>
         <styleUrl>#z1</styleUrl>
         <Point>
            <coordinates>-118.282857,34.021800</coordinates>
         </Point>
      </Placemark>
      <Placemark>
         <name>Moreton Fig</name>
         <styleUrl>#z1</styleUrl>
         <Point>
            <coordinates>-118.285964,34.019812</coordinates>
         </Point>
      </Placemark>
      <Placemark>
         <name>Sol Price</name>
         <styleUrl>#z1</styleUrl>
         <Point>
            <coordinates>-118.283553,34.019301</coordinates>
         </Point>
      </Placemark>
      <Placemark>
         <name>Lyon Center</name>
         <styleUrl>#z1</styleUrl>
         <Point>
            <coordinates>-118.288613,34.024414</coordinates>
         </Point>
      </Placemark>
      <Placemark>
         <name>Cromwell</name>
         <styleUrl>#z1</styleUrl>
         <Point>
            <coordinates>-118.287894,34.022009</coordinates>
         </Point>
      </Placemark>
      <Placemark>
         <name>Seaver Lib</name>
         <styleUrl>#z1</styleUrl>
         <Point>
            <coordinates>-118.288818,34.019599</coordinates>
         </Point>
      </Placemark>
      <Placemark>
         <name>My Home</name>
         <styleUrl>#z1</styleUrl>
         <Point>
            <coordinates>-118.279346,34.028079</coordinates>
         </Point>
      </Placemark>
<Placemark>
         <name>Polygon 2</name>
         <styleUrl>#poly2</styleUrl>
         <Polygon>
            <altitudeMode>relativeToGround</altitudeMode>
            <outerBoundaryIs>
               <LinearRing>
                  <coordinates>
-118.291386,34.025375,5
-118.288613,34.024414,5
-118.282857,34.021800,5
-118.285964,34.019812,5
-118.283553,34.019301,5

-118.291386,34.025375,5
</coordinates>
               </LinearRing>
            </outerBoundaryIs>
         </Polygon>
      </Placemark>

      <Placemark>
         <name>Polygon 1</name>
         <styleUrl>#poly1</styleUrl>
         <Polygon>
            <altitudeMode>relativeToGround</altitudeMode>
            <outerBoundaryIs>
               <LinearRing>
                  <coordinates>
-118.280198,34.021877,5
-118.288818,34.019599,5
-118.282371,34.018430,5
-118.291440,34.018412,5
-118.287894,34.022009,5

-118.279346,34.028079,5
-118.280198,34.021877,5
</coordinates>
               </LinearRing>
            </outerBoundaryIs>
         </Polygon>
      </Placemark>





   </Document>
</kml>